{
  "respCode": "0",
  "data": {
    "pageNo": 1,
    "pageSize": 4,
    "count": 43,
    "pageCount": 11,
    "list": [
      {
        "processInstanceId": "780001",
        "processDefinitionId": "p14b657af05a044c19358d8f54b5548df:3:777508",
        "processDefinitionName": null,
        "processDefinitionKey": "p14b657af05a044c19358d8f54b5548df",
        "name": "项目审批流程",
        "description": null,
        "processDefinitionVersion": null,
        "deploymentId": null,
        "businessKey": null,
        "suspended": false,
        "ended": false,
        "processVariables": null,
        "tenantId": null,
        "localizedName": null,
        "localizedDescription": null,
        "initiatorId": "GHVRTMA9H2",
        "initiatorName": "管理员1号",
        "currentUsersIds": "JL7MUFEB8G",
        "currentUsers": "陈辰",
        "startTime": 1541762622033,
        "startTimeStr": "2018-11-09 19:23:42",
        "endTime": null,
        "endTimeStr": null
      },
      {
        "processInstanceId": "745011",
        "processDefinitionId": "p14b657af05a044c19358d8f54b5548df:2:562508",
        "processDefinitionName": null,
        "processDefinitionKey": "p14b657af05a044c19358d8f54b5548df",
        "name": "项目审批流程",
        "description": null,
        "processDefinitionVersion": null,
        "deploymentId": null,
        "businessKey": null,
        "suspended": false,
        "ended": false,
        "processVariables": null,
        "tenantId": null,
        "localizedName": null,
        "localizedDescription": null,
        "initiatorId": "GHVRTMA9H2",
        "initiatorName": "管理员1号",
        "currentUsersIds": "5NVNDUMLEA",
        "currentUsers": "管理员2号",
        "startTime": 1541753563033,
        "startTimeStr": "2018-11-09 16:52:43",
        "endTime": null,
        "endTimeStr": null
      },
      {
        "processInstanceId": "562509",
        "processDefinitionId": "p14b657af05a044c19358d8f54b5548df:2:562508",
        "processDefinitionName": null,
        "processDefinitionKey": "p14b657af05a044c19358d8f54b5548df",
        "name": "项目审批流程",
        "description": null,
        "processDefinitionVersion": null,
        "deploymentId": null,
        "businessKey": null,
        "suspended": false,
        "ended": false,
        "processVariables": null,
        "tenantId": null,
        "localizedName": null,
        "localizedDescription": null,
        "initiatorId": "GHVRTMA9H2",
        "initiatorName": "管理员1号",
        "currentUsersIds": "FG2A8LA7YM,673V4TAFCQ,92DD9VCGDP,3WYWL9LY6G",
        "currentUsers": "董长青,孟菲,杜志彬,李冰阳",
        "startTime": 1540535539934,
        "startTimeStr": "2018-10-26 14:32:19",
        "endTime": null,
        "endTimeStr": null
      },
      {
        "processInstanceId": "502590",
        "processDefinitionId": "p00582b75b49d4658a8e53eded09535b8:1:502507",
        "processDefinitionName": null,
        "processDefinitionKey": "p00582b75b49d4658a8e53eded09535b8",
        "name": "测试002",
        "description": null,
        "processDefinitionVersion": null,
        "deploymentId": null,
        "businessKey": null,
        "suspended": false,
        "ended": false,
        "processVariables": null,
        "tenantId": null,
        "localizedName": null,
        "localizedDescription": null,
        "initiatorId": "GHVRTMA9H2",
        "initiatorName": "管理员1号",
        "currentUsersIds": "5NVNDUMLEA",
        "currentUsers": "管理员2号",
        "startTime": 1540517343815,
        "startTimeStr": "2018-10-26 09:29:03",
        "endTime": null,
        "endTimeStr": null
      }
    ],
    "ext": {},
    "orderBy": ""
  },
  "ok": true,
  "message": ""
}