{
  "respCode": "0",
  "data": {
    "pageNo": 1,
    "pageSize": 10,
    "count": 220,
    "pageCount": 22,
    "list": [
      {
        "ipAddress": "127.0.0.1",
        "browser": null,
        "startTime": "2018-09-06 13:17:03",
        "endTime": "2018-09-06 13:17:03",
        "usid": "GHVRTMA9H2",
        "operateTime": null,
        "method": "getUserByLoginNameNotDeleted",
        "description": null,
        "className": "com.adc.da.sys.service.UserEOService",
        "account": "admin1",
        "id": "6UA9PF3REM"
      },
      {
        "ipAddress": "0:0:0:0:0:0:0:1",
        "browser": null,
        "startTime": "2018-09-06 13:17:03",
        "endTime": "2018-09-06 13:17:03",
        "usid": "GHVRTMA9H2",
        "operateTime": null,
        "method": "getUserByLoginNameNotDeleted",
        "description": null,
        "className": "com.adc.da.sys.service.UserEOService",
        "account": "admin1",
        "id": "BZDZWRFJ82"
      },
      {
        "ipAddress": "127.0.0.1",
        "browser": null,
        "startTime": "2018-09-06 13:17:03",
        "endTime": "2018-09-06 13:17:03",
        "usid": "GHVRTMA9H2",
        "operateTime": null,
        "method": "getSysRoleListByUserId",
        "description": null,
        "className": "com.adc.da.sys.service.RoleEOService",
        "account": "admin1",
        "id": "522JDTP4N8"
      },
      {
        "ipAddress": "127.0.0.1",
        "browser": null,
        "startTime": "2018-09-06 13:02:44",
        "endTime": "2018-09-06 13:02:44",
        "usid": "GHVRTMA9H2",
        "operateTime": null,
        "method": "findAll",
        "description": null,
        "className": "com.adc.da.sys.service.MenuEOService",
        "account": "admin1",
        "id": "8TBTWUWBQW"
      },
      {
        "ipAddress": "0:0:0:0:0:0:0:1",
        "browser": null,
        "startTime": "2018-09-06 13:02:36",
        "endTime": "2018-09-06 13:02:36",
        "usid": "GHVRTMA9H2",
        "operateTime": null,
        "method": "getOrgEOByNameAndPid",
        "description": null,
        "className": "com.adc.da.sys.service.OrgEOService",
        "account": "admin1",
        "id": "88PQ9EB5ZG"
      },
      {
        "ipAddress": "0:0:0:0:0:0:0:1",
        "browser": null,
        "startTime": "2018-09-06 13:02:36",
        "endTime": "2018-09-06 13:02:36",
        "usid": "GHVRTMA9H2",
        "operateTime": null,
        "method": "save",
        "description": null,
        "className": "com.adc.da.sys.service.OrgEOService",
        "account": "admin1",
        "id": "8CTUBKAW3U"
      },
      {
        "ipAddress": "127.0.0.1",
        "browser": null,
        "startTime": "2018-09-06 13:01:34",
        "endTime": "2018-09-06 13:01:34",
        "usid": "GHVRTMA9H2",
        "operateTime": null,
        "method": "findAll",
        "description": null,
        "className": "com.adc.da.sys.service.MenuEOService",
        "account": "admin1",
        "id": "XN3DPP9TAX"
      },
      {
        "ipAddress": "127.0.0.1",
        "browser": null,
        "startTime": "2018-09-06 13:01:31",
        "endTime": "2018-09-06 13:01:31",
        "usid": "GHVRTMA9H2",
        "operateTime": null,
        "method": "pageList",
        "description": null,
        "className": "com.adc.da.workflow.service.ActivitiProcessService",
        "account": "admin1",
        "id": "HRF2N7E4ZY"
      },
      {
        "ipAddress": "127.0.0.1",
        "browser": null,
        "startTime": "2018-09-06 13:01:27",
        "endTime": "2018-09-06 13:01:27",
        "usid": "GHVRTMA9H2",
        "operateTime": null,
        "method": "findAll",
        "description": null,
        "className": "com.adc.da.sys.service.MenuEOService",
        "account": "admin1",
        "id": "W7BFTU39J2"
      },
      {
        "ipAddress": "0:0:0:0:0:0:0:1",
        "browser": null,
        "startTime": "2018-09-06 13:01:05",
        "endTime": "2018-09-06 13:01:05",
        "usid": "GHVRTMA9H2",
        "operateTime": null,
        "method": "getUserByLoginNameNotDeleted",
        "description": null,
        "className": "com.adc.da.sys.service.UserEOService",
        "account": "admin1",
        "id": "JUSAZD3Z3R"
      }
    ],
    "ext": {},
    "orderBy": ""
  },
  "ok": true,
  "message": ""
}