{
  "respCode": "",
  "data": {
    "pageNo": 1,
    "pageSize": 5,
    "count": 13,
    "pageCount": 3,
    "list": [
      {
        "id": "502589",
        "name": "[测试002]-111",
        "assignee": "GHVRTMA9H2",
        "assigneeName": "管理员1号",
        "createTime": 1540517011953,
        "createTimeStr": "2018-10-26 09:23:31",
        "finishTime": null,
        "finishTimeStr": "",
        "processInstanceId": "502584",
        "processInstanceName": "测试002",
        "status": "0",
        "previousTaskId": null,
        "previousTaskName": null,
        "previousAssignee": null,
        "previousAssigneeName": null,
        "isHaveCounterSignTasks": false,
        "buttonPrivileges": {
          "isShowCountersignButton": false,
          "isShowMultiInsSelectPeopleButton": false
        },
        "comment": null,
        "processDefinitionKey": "p00582b75b49d4658a8e53eded09535b8",
        "formKey": "components/externalForm/revenueBudget.html"
      },
      {
        "id": "475025",
        "name": "[财务测试1]-null",
        "assignee": "GHVRTMA9H2",
        "assigneeName": "管理员1号",
        "createTime": 1540473432431,
        "createTimeStr": "2018-10-25 21:17:12",
        "finishTime": null,
        "finishTimeStr": "",
        "processInstanceId": "475017",
        "processInstanceName": "财务测试1",
        "status": "0",
        "previousTaskId": null,
        "previousTaskName": null,
        "previousAssignee": null,
        "previousAssigneeName": null,
        "isHaveCounterSignTasks": false,
        "buttonPrivileges": {
          "isShowCountersignButton": false,
          "isShowMultiInsSelectPeopleButton": false
        },
        "comment": null,
        "processDefinitionKey": "p3a7c010f513f419baf3bf271b5f40859",
        "formKey": "components/externalForm/revenueBudget.html"
      },
      {
        "id": "475012",
        "name": "[复杂分支]-A审核",
        "assignee": "GHVRTMA9H2",
        "assigneeName": "管理员1号",
        "createTime": 1540473094714,
        "createTimeStr": "2018-10-25 21:11:34",
        "finishTime": null,
        "finishTimeStr": "",
        "processInstanceId": "475001",
        "processInstanceName": "复杂分支",
        "status": "0",
        "previousTaskId": null,
        "previousTaskName": null,
        "previousAssignee": null,
        "previousAssigneeName": null,
        "isHaveCounterSignTasks": false,
        "buttonPrivileges": {
          "isShowCountersignButton": false,
          "isShowMultiInsSelectPeopleButton": false
        },
        "comment": null,
        "processDefinitionKey": "pd5dffe760c1647f884258c2b8dc3d255",
        "formKey": "1721739382"
      },
      {
        "id": "472515",
        "name": "[复杂分支]-A审核",
        "assignee": "GHVRTMA9H2",
        "assigneeName": "管理员1号",
        "createTime": 1540472696574,
        "createTimeStr": "2018-10-25 21:04:56",
        "finishTime": null,
        "finishTimeStr": "",
        "processInstanceId": "472505",
        "processInstanceName": "复杂分支",
        "status": "0",
        "previousTaskId": null,
        "previousTaskName": null,
        "previousAssignee": null,
        "previousAssigneeName": null,
        "isHaveCounterSignTasks": false,
        "buttonPrivileges": {
          "isShowCountersignButton": false,
          "isShowMultiInsSelectPeopleButton": false
        },
        "comment": null,
        "processDefinitionKey": "pd5dffe760c1647f884258c2b8dc3d255",
        "formKey": "1721739382"
      },
      {
        "id": "470049",
        "name": "[财务测试1]-null",
        "assignee": "GHVRTMA9H2",
        "assigneeName": "管理员1号",
        "createTime": 1540472679717,
        "createTimeStr": "2018-10-25 21:04:39",
        "finishTime": null,
        "finishTimeStr": "",
        "processInstanceId": "470040",
        "processInstanceName": "财务测试1",
        "status": "0",
        "previousTaskId": null,
        "previousTaskName": null,
        "previousAssignee": null,
        "previousAssigneeName": null,
        "isHaveCounterSignTasks": false,
        "buttonPrivileges": {
          "isShowCountersignButton": false,
          "isShowMultiInsSelectPeopleButton": false
        },
        "comment": null,
        "processDefinitionKey": "p3a7c010f513f419baf3bf271b5f40859",
        "formKey": "components/externalForm/revenueBudget.html"
      }
    ],
    "ext": {},
    "orderBy": ""
  },
  "ok": true,
  "message": ""
}